Example
…
# a simplified dataframe 
subset_t <- test %>% select_dataset("DM", simplify = TRUE)

As can be seen above, the metacore object can be filtered directly,
or by using the simplify = TRUE argument, a simplified data
frame can be returned.

subset_t
#> # A tibble: 25 × 22
#>    dataset variable key_seq order keep  core  supp_f…¹ type  length label format
#>    <chr>   <chr>      <int> <int> <lgl> <chr> <lgl>    <chr>  <int> <chr> <chr> 
#>  1 DM      STUDYID        1     1 TRUE  <NA>  NA       text      12 Stud… <NA>  
#>  2 DM      DOMAIN        NA     2 TRUE  <NA>  NA       text       2 Doma… <NA>  
#>  3 DM      USUBJID        2     3 TRUE  <NA>  NA       text      11 Uniq… <NA>  
#>  4 DM      SUBJID        NA     4 TRUE  <NA>  NA       text       4 Subj… <NA>  
#>  5 DM      RFSTDTC       NA     5 FALSE <NA>  NA       date      10 Subj… <NA>  
#>  6 DM      RFENDTC       NA     6 FALSE <NA>  NA       date      10 Subj… <NA>  
#>  7 DM      RFXSTDTC      NA     7 FALSE <NA>  NA       date…     20 Date… <NA>  
#>  8 DM      RFXENDTC      NA     8 FALSE <NA>  NA       date…     20 Date… <NA>  
#>  9 DM      RFICDTC       NA     9 FALSE <NA>  NA       date…     20 Date… <NA>  
#> 10 DM      RFPENDTC      NA    10 FALSE <NA>  NA       date…     20 Date… <NA>  
#> # … with 15 more rows, 11 more variables: common <lgl>, code_id <chr>,
#> #   derivation_id <chr>, origin <chr>, where <chr>, sig_dig <int>,
#> #   derivation <chr>, name <chr>, codes <list>, idvar <chr>, qeval <chr>, and
#> #   abbreviated variable name ¹​supp_flag
